<?xml version="1.0" encoding="UTF-8" standalone="no"?>
<svg
   width="120.72"
   height="180.00002"
   viewBox="0 0 31.940497 47.625005"
   version="1.1"
   id="svg16"
   inkscape:version="1.1.1 (3bf5ae0d25, 2021-09-20)"
   sodipodi:docname="border.svg"
   xmlns:inkscape="http://www.inkscape.org/namespaces/inkscape"
   xmlns:sodipodi="http://sodipodi.sourceforge.net/DTD/sodipodi-0.dtd"
   xmlns="http://www.w3.org/2000/svg"
   xmlns:svg="http://www.w3.org/2000/svg"
   xmlns:rdf="http://www.w3.org/1999/02/22-rdf-syntax-ns#"
   xmlns:cc="http://creativecommons.org/ns#"
   xmlns:dc="http://purl.org/dc/elements/1.1/">
  <defs
     id="defs10">
    <clipPath
       clipPathUnits="userSpaceOnUse"
       id="clipPath914">
      <path
         id="path916"
         style="font-style:normal;font-variant:normal;font-weight:bold;font-stretch:normal;font-size:35.2778px;line-height:1.25;font-family:Raleway;-inkscape-font-specification:'Raleway Bold';fill:#ffffff;fill-opacity:1;stroke:none;stroke-width:2.78006"
         d="M 0,0 V 16.183594 H 5 V 33.164062 H 3 V 146.76562 h 1.6113281 v 17.05079 H 0 V 180 H 120.7207 V 163.81641 H 116 v -17.05079 h 1.7207 V 33.164062 h -1.69726 V 16.183594 h 4.69726 V 0 Z M 25,16.183594 H 96.023438 V 33.164062 H 94.199219 L 60.279297,97.804688 26.679688,33.164062 H 25 Z m 0.08008,56.021484 29.119141,55.519532 h 12.32031 L 95.640625,72.205078 V 146.76562 H 97.5 v 17.05079 H 23.111328 v -17.05079 h 1.96875 z" />
    </clipPath>
  </defs>
  <sodipodi:namedview
     id="base"
     pagecolor="#ffffff"
     bordercolor="#666666"
     borderopacity="1.0"
     inkscape:pageopacity="0.0"
     inkscape:pageshadow="2"
     inkscape:zoom="3"
     inkscape:cx="46.5"
     inkscape:cy="83.833333"
     inkscape:document-units="px"
     inkscape:current-layer="layer1"
     inkscape:document-rotation="0"
     showgrid="false"
     units="px"
     inkscape:window-width="1276"
     inkscape:window-height="776"
     inkscape:window-x="0"
     inkscape:window-y="20"
     inkscape:window-maximized="0"
     height="180px"
     inkscape:pagecheckerboard="0"
     width="120.72px" />
  <metadata
     id="metadata13">
    <rdf:RDF>
      <cc:Work
         rdf:about="">
        <dc:format>image/svg+xml</dc:format>
        <dc:type
           rdf:resource="http://purl.org/dc/dcmitype/StillImage" />
      </cc:Work>
    </rdf:RDF>
  </metadata>
  <g
     inkscape:label="Layer 1"
     inkscape:groupmode="layer"
     id="layer1"
     transform="translate(1.5239989)">
    <path
       id="path912"
       style="font-style:normal;font-variant:normal;font-weight:bold;font-stretch:normal;font-size:35.2778px;line-height:1.25;font-family:Raleway;-inkscape-font-specification:'Raleway Bold';fill:none;fill-opacity:1;stroke:#000000;stroke-width:6.00000005;stroke-miterlimit:4.2;stroke-dasharray:none;stroke-opacity:1;stroke-linejoin:miter;stroke-linecap:square"
       d="M 0,16.183594 H 5 V 33.164062 H 3 V 146.76562 h 1.6113281 v 17.05079 H 0 M 0,180 h 120.7207 m 0,-16.18359 H 116 v -17.05079 h 1.7207 V 33.164062 h -1.69726 V 16.183594 h 4.69726 M 120.7207,0 H 0 M 25,16.183594 H 96.023438 V 33.164062 H 94.199219 L 60.279297,97.804688 26.679688,33.164062 H 25 Z m 0.08008,56.021484 29.119141,55.519532 H 66.519531 L 95.640625,72.205078 V 146.76562 H 97.5 v 17.05079 H 23.111328 v -17.05079 h 1.96875 z"
       transform="matrix(0.26458332,0,0,0.26458332,-1.5239989,0)"
       clip-path="url(#clipPath914)"
       sodipodi:nodetypes="ccccccccccccccccccccccccccccccccccccccc" />
  </g>
</svg>
