<?xml version="1.0" encoding="UTF-8" standalone="no"?>
<svg
   width="83.919998"
   height="180"
   viewBox="0 0 22.203832 47.625002"
   version="1.1"
   id="svg16"
   inkscape:version="1.1.1 (3bf5ae0d25, 2021-09-20)"
   sodipodi:docname="border.svg"
   xmlns:inkscape="http://www.inkscape.org/namespaces/inkscape"
   xmlns:sodipodi="http://sodipodi.sourceforge.net/DTD/sodipodi-0.dtd"
   xmlns="http://www.w3.org/2000/svg"
   xmlns:svg="http://www.w3.org/2000/svg"
   xmlns:rdf="http://www.w3.org/1999/02/22-rdf-syntax-ns#"
   xmlns:cc="http://creativecommons.org/ns#"
   xmlns:dc="http://purl.org/dc/elements/1.1/">
  <defs
     id="defs10">
    <clipPath
       clipPathUnits="userSpaceOnUse"
       id="clipPath913">
      <path
         id="path915"
         style="font-style:normal;font-variant:normal;font-weight:bold;font-stretch:normal;font-size:35.2778px;line-height:1.25;font-family:Raleway;-inkscape-font-specification:'Raleway Bold';fill:#ffffff;fill-opacity:1;stroke:none;stroke-width:2.31791"
         d="M 0,0 V 16.183594 H 5 V 62.925781 H 3 v 83.839839 h 4.5 v 17.05079 H 0 V 180 H 83.919922 V 163.81641 H 76 v -17.05079 h 4.919922 V 94.445312 c 0,-4.05333 -0.372475,-8.053336 -1.119141,-12 -0.639999,-3.946663 -1.868308,-7.467215 -3.68164,-10.560546 -1.706666,-3.199998 -4.266357,-5.7062 -7.679688,-7.519532 -3.306664,-1.919998 -7.572165,-2.880859 -12.798828,-2.880859 -4.799996,0 -9.386436,0.693413 -13.759766,2.080078 -4.266663,1.279999 -8.054664,3.199768 -11.361328,5.759766 -3.306664,2.453331 -6.026824,5.49443 -8.160156,9.121093 V 62.925781 H 20.199219 V 16.183594 H 83.919922 V 0 Z m 46.199219,80.365234 c 4.159997,0 7.4131,1.545341 9.759765,4.638672 2.346665,3.093331 3.521485,8.000708 3.521485,14.720703 V 146.76562 H 64 v 17.05079 H 19.5 v -17.05079 h 4.939453 V 97.804688 c 1.066666,-3.413331 2.774429,-6.398987 5.121094,-8.958985 2.346665,-2.666665 4.959846,-4.746902 7.839844,-6.240234 2.986664,-1.493332 5.91883,-2.240235 8.798828,-2.240235 z" />
    </clipPath>
  </defs>
  <sodipodi:namedview
     id="base"
     pagecolor="#ffffff"
     bordercolor="#666666"
     borderopacity="1.0"
     inkscape:pageopacity="0.0"
     inkscape:pageshadow="2"
     inkscape:zoom="3.01"
     inkscape:cx="34.717608"
     inkscape:cy="95.182724"
     inkscape:document-units="px"
     inkscape:current-layer="layer1"
     inkscape:document-rotation="0"
     showgrid="false"
     units="px"
     inkscape:window-width="1276"
     inkscape:window-height="776"
     inkscape:window-x="0"
     inkscape:window-y="20"
     inkscape:window-maximized="0"
     height="180px"
     inkscape:pagecheckerboard="0"
     width="83.92px" />
  <metadata
     id="metadata13">
    <rdf:RDF>
      <cc:Work
         rdf:about="">
        <dc:format>image/svg+xml</dc:format>
        <dc:type
           rdf:resource="http://purl.org/dc/dcmitype/StillImage" />
      </cc:Work>
    </rdf:RDF>
  </metadata>
  <g
     inkscape:label="Layer 1"
     inkscape:groupmode="layer"
     id="layer1">
    <path
       id="path911"
       style="font-style:normal;font-variant:normal;font-weight:bold;font-stretch:normal;font-size:35.2778px;line-height:1.25;font-family:Raleway;-inkscape-font-specification:'Raleway Bold';fill:none;fill-opacity:1;stroke:#000000;stroke-width:6;stroke-miterlimit:4;stroke-dasharray:none;stroke-opacity:1"
       d="m 0,180 h 83.919922 m 0,-16.18359 H 76 v -17.05079 h 4.919922 V 94.445312 c 0,-4.05333 -0.372475,-8.053336 -1.119141,-12 -0.639999,-3.946663 -1.868308,-7.467215 -3.68164,-10.560546 -1.706666,-3.199998 -4.266357,-5.7062 -7.679688,-7.519532 -3.306664,-1.919998 -7.572165,-2.880859 -12.798828,-2.880859 -4.799996,0 -9.386436,0.693413 -13.759766,2.080078 -4.266663,1.279999 -8.054664,3.199768 -11.361328,5.759766 -3.306664,2.453331 -6.026824,5.49443 -8.160156,9.121093 V 62.925781 H 20.199219 V 16.183594 H 83.919922 M 83.919922,0 H 0 M 0,16.183594 H 5 V 62.925781 H 3 v 83.839839 h 4.5 v 17.05079 H 0 M 46.199219,80.365234 c 4.159997,0 7.4131,1.545341 9.759765,4.638672 2.346665,3.093331 3.521485,8.000708 3.521485,14.720703 V 146.76562 H 64 v 17.05079 H 19.5 v -17.05079 h 4.939453 V 97.804688 c 1.066666,-3.413331 2.774429,-6.398987 5.121094,-8.958985 2.346665,-2.666665 4.959846,-4.746902 7.839844,-6.240234 2.986664,-1.493332 5.91883,-2.240235 8.798828,-2.240235 z"
       transform="scale(0.26458333)"
       clip-path="url(#clipPath913)"
       sodipodi:nodetypes="ccccccscccscccccccccccccccccssscccccccccs" />
  </g>
</svg>
