<?xml version="1.0" encoding="UTF-8" standalone="no"?>
<svg
   width="83.919998"
   height="180"
   viewBox="0 0 22.203832 47.625002"
   version="1.1"
   id="svg16"
   inkscape:version="1.1.1 (3bf5ae0d25, 2021-09-20)"
   sodipodi:docname="mask.svg"
   xmlns:inkscape="http://www.inkscape.org/namespaces/inkscape"
   xmlns:sodipodi="http://sodipodi.sourceforge.net/DTD/sodipodi-0.dtd"
   xmlns="http://www.w3.org/2000/svg"
   xmlns:svg="http://www.w3.org/2000/svg"
   xmlns:rdf="http://www.w3.org/1999/02/22-rdf-syntax-ns#"
   xmlns:cc="http://creativecommons.org/ns#"
   xmlns:dc="http://purl.org/dc/elements/1.1/">
  <defs
     id="defs10" />
  <sodipodi:namedview
     id="base"
     pagecolor="#ffffff"
     bordercolor="#666666"
     borderopacity="1.0"
     inkscape:pageopacity="0.0"
     inkscape:pageshadow="2"
     inkscape:zoom="3.01"
     inkscape:cx="73.58804"
     inkscape:cy="90.199336"
     inkscape:document-units="px"
     inkscape:current-layer="layer1"
     inkscape:document-rotation="0"
     showgrid="false"
     units="px"
     inkscape:window-width="1276"
     inkscape:window-height="776"
     inkscape:window-x="0"
     inkscape:window-y="20"
     inkscape:window-maximized="0"
     height="180px"
     inkscape:pagecheckerboard="0"
     width="83.92px" />
  <metadata
     id="metadata13">
    <rdf:RDF>
      <cc:Work
         rdf:about="">
        <dc:format>image/svg+xml</dc:format>
        <dc:type
           rdf:resource="http://purl.org/dc/dcmitype/StillImage" />
      </cc:Work>
    </rdf:RDF>
  </metadata>
  <g
     inkscape:label="Layer 1"
     inkscape:groupmode="layer"
     id="layer1">
    <path
       id="rect18"
       style="fill:#000000;stroke-width:5.53678"
       d="M 0 16.183594 L 0 163.81641 L 7.5 163.81641 L 7.5 146.76562 L 3 146.76562 L 3 62.925781 L 5 62.925781 L 5 16.183594 L 0 16.183594 z M 20.199219 16.183594 L 20.199219 62.925781 L 22.359375 62.925781 L 22.359375 78.445312 C 24.492707 74.81865 27.212867 71.77755 30.519531 69.324219 C 33.826195 66.764221 37.614196 64.844452 41.880859 63.564453 C 46.254189 62.177788 50.840629 61.484375 55.640625 61.484375 C 60.867288 61.484375 65.132789 62.445236 68.439453 64.365234 C 71.852784 66.178566 74.412475 68.684768 76.119141 71.884766 C 77.932473 74.978097 79.160782 78.49865 79.800781 82.445312 C 80.547447 86.391976 80.919922 90.391983 80.919922 94.445312 L 80.919922 146.76562 L 76 146.76562 L 76 163.81641 L 83.919922 163.81641 L 83.919922 16.183594 L 20.199219 16.183594 z M 46.199219 80.365234 C 43.319221 80.365234 40.387055 81.112137 37.400391 82.605469 C 34.520393 84.098801 31.907212 86.179038 29.560547 88.845703 C 27.213882 91.405701 25.506119 94.391357 24.439453 97.804688 L 24.439453 146.76562 L 19.5 146.76562 L 19.5 163.81641 L 64 163.81641 L 64 146.76562 L 59.480469 146.76562 L 59.480469 99.724609 C 59.480469 93.004614 58.305649 88.097237 55.958984 85.003906 C 53.612319 81.910575 50.359216 80.365234 46.199219 80.365234 z "
       transform="scale(0.26458333)" />
  </g>
</svg>
