<?xml version="1.0" encoding="UTF-8" standalone="no"?>
<svg
   width="88.400002"
   height="180"
   viewBox="0 0 23.389165 47.625002"
   version="1.1"
   id="svg16"
   inkscape:version="1.1.1 (3bf5ae0d25, 2021-09-20)"
   sodipodi:docname="border.svg"
   xmlns:inkscape="http://www.inkscape.org/namespaces/inkscape"
   xmlns:sodipodi="http://sodipodi.sourceforge.net/DTD/sodipodi-0.dtd"
   xmlns="http://www.w3.org/2000/svg"
   xmlns:svg="http://www.w3.org/2000/svg"
   xmlns:rdf="http://www.w3.org/1999/02/22-rdf-syntax-ns#"
   xmlns:cc="http://creativecommons.org/ns#"
   xmlns:dc="http://purl.org/dc/elements/1.1/">
  <defs
     id="defs10">
    <clipPath
       clipPathUnits="userSpaceOnUse"
       id="clipPath97">
      <path
         id="path99"
         style="font-style:normal;font-variant:normal;font-weight:bold;font-stretch:normal;font-size:35.2778px;line-height:1.25;font-family:Raleway;-inkscape-font-specification:'Raleway Bold';fill:#ffffff;fill-opacity:1;stroke:none;stroke-width:2.37897"
         d="M 0,0 V 16.183594 H 34 V 63.09375 C 30.265771,64.07874 26.811028,65.512282 23.640625,67.404297 17.027296,71.350961 11.905961,76.630812 8.2792969,83.244141 4.7592994,89.750803 3,96.952376 3,104.8457 c 0,5.76 1.0123973,11.25186 3.0390625,16.47852 2.1333318,5.22666 5.1209405,9.92008 8.9609375,14.08008 3.839997,4.05333 8.479926,7.25294 13.919922,9.59961 1.628517,0.67056 3.327292,1.22939 5.080078,1.69921 v 17.11329 H 0 V 180 H 88.400391 V 163.81641 H 57.380859 v -16.36719 c 2.305065,-0.44261 4.502183,-1.03749 6.578125,-1.80469 5.01333,-1.92 9.334274,-4.53318 12.960938,-7.83984 3.73333,-3.30667 6.56047,-7.03922 8.480469,-11.19922 l -20.960938,-6.40039 c -0.853333,1.92 -2.186668,3.62581 -4,5.11914 -1.813332,1.49333 -3.893569,2.66815 -6.240234,3.52148 -2.239999,0.85334 -4.639221,1.2793 -7.199219,1.2793 -4.05333,0 -7.732398,-1.06784 -11.039062,-3.20117 -3.306665,-2.24 -5.973335,-5.22566 -8,-8.95899 -1.919999,-3.83999 -2.88086,-8.21247 -2.88086,-13.11914 0,-5.013327 0.960861,-9.38776 2.88086,-13.121091 1.919998,-3.839997 4.533179,-6.774116 7.839843,-8.800781 C 39.214112,80.790496 42.94667,79.724609 47,79.724609 c 3.626664,0 6.933257,0.853882 9.919922,2.560547 2.986664,1.599999 5.385887,3.945732 7.199219,7.039063 L 85.080078,82.923828 C 81.88008,76.523833 77.026193,71.350961 70.519531,67.404297 66.604403,65.029547 62.22285,63.373572 57.380859,62.427734 V 16.183594 H 88.400391 V 0 Z" />
    </clipPath>
  </defs>
  <sodipodi:namedview
     id="base"
     pagecolor="#ffffff"
     bordercolor="#666666"
     borderopacity="1.0"
     inkscape:pageopacity="0.0"
     inkscape:pageshadow="2"
     inkscape:zoom="3"
     inkscape:cx="26.166667"
     inkscape:cy="87.5"
     inkscape:document-units="px"
     inkscape:current-layer="layer1"
     inkscape:document-rotation="0"
     showgrid="false"
     units="px"
     inkscape:window-width="1276"
     inkscape:window-height="776"
     inkscape:window-x="0"
     inkscape:window-y="20"
     inkscape:window-maximized="0"
     height="180px"
     inkscape:pagecheckerboard="0"
     width="88.4px" />
  <metadata
     id="metadata13">
    <rdf:RDF>
      <cc:Work
         rdf:about="">
        <dc:format>image/svg+xml</dc:format>
        <dc:type
           rdf:resource="http://purl.org/dc/dcmitype/StillImage" />
      </cc:Work>
    </rdf:RDF>
  </metadata>
  <g
     inkscape:label="Layer 1"
     inkscape:groupmode="layer"
     id="layer1"
     transform="translate(1.5239989)">
    <path
       id="rect860-3"
       style="font-style:normal;font-variant:normal;font-weight:bold;font-stretch:normal;font-size:35.2778px;line-height:1.25;font-family:Raleway;-inkscape-font-specification:'Raleway Bold';fill:none;fill-opacity:1;stroke:#000000;stroke-width:6;stroke-miterlimit:4;stroke-dasharray:none;stroke-opacity:1"
       d="M 0,16.183594 H 34 V 63.09375 C 30.265771,64.07874 26.811028,65.512282 23.640625,67.404297 17.027296,71.350961 11.905961,76.630812 8.2792969,83.244141 4.7592994,89.750803 3,96.952376 3,104.8457 c 0,5.76 1.0123973,11.25186 3.0390625,16.47852 2.1333318,5.22666 5.1209405,9.92008 8.9609375,14.08008 3.839997,4.05333 8.479926,7.25294 13.919922,9.59961 1.628517,0.67056 3.327292,1.22939 5.080078,1.69921 v 17.11329 H 0 M 0,180 h 88.400391 m 0,-16.18359 H 57.380859 v -16.36719 c 2.305065,-0.44261 4.502183,-1.03749 6.578125,-1.80469 5.01333,-1.92 9.334274,-4.53318 12.960938,-7.83984 3.73333,-3.30667 6.56047,-7.03922 8.480469,-11.19922 l -20.960938,-6.40039 c -0.853333,1.92 -2.186668,3.62581 -4,5.11914 -1.813332,1.49333 -3.893569,2.66815 -6.240234,3.52148 -2.239999,0.85334 -4.639221,1.2793 -7.199219,1.2793 -4.05333,0 -7.732398,-1.06784 -11.039062,-3.20117 -3.306665,-2.24 -5.973335,-5.22566 -8,-8.95899 -1.919999,-3.83999 -2.88086,-8.21247 -2.88086,-13.11914 0,-5.013327 0.960861,-9.38776 2.88086,-13.121091 1.919998,-3.839997 4.533179,-6.774116 7.839843,-8.800781 C 39.214112,80.790496 42.94667,79.724609 47,79.724609 c 3.626664,0 6.933257,0.853882 9.919922,2.560547 2.986664,1.599999 5.385887,3.945732 7.199219,7.039063 L 85.080078,82.923828 C 81.88008,76.523833 77.026193,71.350961 70.519531,67.404297 66.604403,65.029547 62.22285,63.373572 57.380859,62.427734 V 16.183594 H 88.400391 M 88.400391,0 H 0"
       transform="matrix(0.26458333,0,0,0.26458333,-1.5239989,0)"
       clip-path="url(#clipPath97)"
       sodipodi:nodetypes="cccscscccccccccccccccscsccsccscccsccccc" />
  </g>
</svg>
