<?xml version="1.0" encoding="UTF-8" standalone="no"?>
<svg
   width="105.36"
   height="180"
   viewBox="0 0 27.8765 47.625001"
   version="1.1"
   id="svg16"
   inkscape:version="1.1.1 (3bf5ae0d25, 2021-09-20)"
   sodipodi:docname="border.svg"
   xmlns:inkscape="http://www.inkscape.org/namespaces/inkscape"
   xmlns:sodipodi="http://sodipodi.sourceforge.net/DTD/sodipodi-0.dtd"
   xmlns="http://www.w3.org/2000/svg"
   xmlns:svg="http://www.w3.org/2000/svg"
   xmlns:rdf="http://www.w3.org/1999/02/22-rdf-syntax-ns#"
   xmlns:cc="http://creativecommons.org/ns#"
   xmlns:dc="http://purl.org/dc/elements/1.1/">
  <defs
     id="defs10">
    <clipPath
       clipPathUnits="userSpaceOnUse"
       id="clipPath913">
      <path
         id="path915"
         style="font-style:normal;font-variant:normal;font-weight:bold;font-stretch:normal;font-size:35.2778px;line-height:1.25;font-family:Raleway;-inkscape-font-specification:'Raleway Bold';fill:#ffffff;fill-opacity:1;stroke:none;stroke-width:2.59718"
         d="M 0,0 V 16.183594 H 7 V 33.164062 H 3 v 57.919922 c 0,7.359995 0.9073712,14.454586 2.7207031,21.281246 1.813332,6.72 4.6385189,12.74675 8.4785159,18.08008 3.946663,5.33333 9.067999,9.54534 15.361328,12.63867 3.696779,1.72517 7.852949,2.93735 12.439453,3.66602 v 17.06641 H 0 V 180 H 105.35938 V 163.81641 H 64 v -17.17383 c 4.128741,-0.715 7.911398,-1.83843 11.320312,-3.39844 6.293329,-2.98666 11.412712,-7.04016 15.359376,-12.16016 4.05333,-5.22666 6.987449,-11.25341 8.800781,-18.08007 1.920001,-6.82667 2.878911,-14.133265 2.878911,-21.919926 V 33.164062 H 98.5 V 16.183594 h 6.85938 V 0 Z m 21,16.183594 h 63.5 v 16.980468 h -4.060547 v 57.919922 c 0,4.586664 -0.479454,9.121566 -1.439453,13.601566 -0.959999,4.37333 -2.507293,8.31984 -4.640625,11.83984 -2.026665,3.52 -4.851852,6.34518 -8.478516,8.47852 -3.519997,2.02666 -7.94792,3.04101 -13.28125,3.04101 -5.226662,0 -9.599143,-1.01435 -13.11914,-3.04101 -3.519998,-2.02667 -6.347137,-4.79837 -8.480469,-8.31836 -2.133332,-3.52 -3.680626,-7.46652 -4.640625,-11.83985 -0.853333,-4.47999 -1.279297,-9.068386 -1.279297,-13.761716 V 33.164062 H 21 Z" />
    </clipPath>
  </defs>
  <sodipodi:namedview
     id="base"
     pagecolor="#ffffff"
     bordercolor="#666666"
     borderopacity="1.0"
     inkscape:pageopacity="0.0"
     inkscape:pageshadow="2"
     inkscape:zoom="3"
     inkscape:cx="73.5"
     inkscape:cy="92.5"
     inkscape:document-units="px"
     inkscape:current-layer="layer1"
     inkscape:document-rotation="0"
     showgrid="false"
     units="px"
     inkscape:window-width="1276"
     inkscape:window-height="776"
     inkscape:window-x="0"
     inkscape:window-y="20"
     inkscape:window-maximized="0"
     height="180px"
     inkscape:pagecheckerboard="0"
     width="105.36px" />
  <metadata
     id="metadata13">
    <rdf:RDF>
      <cc:Work
         rdf:about="">
        <dc:format>image/svg+xml</dc:format>
        <dc:type
           rdf:resource="http://purl.org/dc/dcmitype/StillImage" />
      </cc:Work>
    </rdf:RDF>
  </metadata>
  <g
     inkscape:label="Layer 1"
     inkscape:groupmode="layer"
     id="layer1">
    <path
       id="path911"
       style="font-style:normal;font-variant:normal;font-weight:bold;font-stretch:normal;font-size:35.2778px;line-height:1.25;font-family:Raleway;-inkscape-font-specification:'Raleway Bold';fill:none;fill-opacity:1;stroke:#000000;stroke-width:6;stroke-miterlimit:4;stroke-dasharray:none;stroke-opacity:1"
       d="M 0,16.183594 H 7 V 33.164062 H 3 v 57.919922 c 0,7.359995 0.9073712,14.454586 2.7207031,21.281246 1.813332,6.72 4.6385189,12.74675 8.4785159,18.08008 3.946663,5.33333 9.067999,9.54534 15.361328,12.63867 3.696779,1.72517 7.852949,2.93735 12.439453,3.66602 v 17.06641 H 0 M 0,180 h 105.35938 m 0,-16.18359 H 64 v -17.17383 c 4.128741,-0.715 7.911398,-1.83843 11.320312,-3.39844 6.293329,-2.98666 11.412712,-7.04016 15.359376,-12.16016 4.05333,-5.22666 6.987449,-11.25341 8.800781,-18.08007 1.920001,-6.82667 2.878911,-14.133265 2.878911,-21.919926 V 33.164062 H 98.5 V 16.183594 h 6.85938 M 105.35938,0 H 0 m 21,16.183594 h 63.5 v 16.980468 h -4.060547 v 57.919922 c 0,4.586664 -0.479454,9.121566 -1.439453,13.601566 -0.959999,4.37333 -2.507293,8.31984 -4.640625,11.83984 -2.026665,3.52 -4.851852,6.34518 -8.478516,8.47852 -3.519997,2.02666 -7.94792,3.04101 -13.28125,3.04101 -5.226662,0 -9.599143,-1.01435 -13.11914,-3.04101 -3.519998,-2.02667 -6.347137,-4.79837 -8.480469,-8.31836 -2.133332,-3.52 -3.680626,-7.46652 -4.640625,-11.83985 -0.853333,-4.47999 -1.279297,-9.068386 -1.279297,-13.761716 V 33.164062 H 21 Z"
       transform="scale(0.26458334)"
       clip-path="url(#clipPath913)"
       sodipodi:nodetypes="ccccsccccccccccccccsccccccccccscccssscsccc" />
  </g>
</svg>
