<?xml version="1.0" encoding="UTF-8" standalone="no"?>
<svg
   width="86.160004"
   height="180"
   viewBox="0 0 22.796501 47.625002"
   version="1.1"
   id="svg16"
   inkscape:version="1.1.1 (3bf5ae0d25, 2021-09-20)"
   sodipodi:docname="mask.svg"
   xmlns:inkscape="http://www.inkscape.org/namespaces/inkscape"
   xmlns:sodipodi="http://sodipodi.sourceforge.net/DTD/sodipodi-0.dtd"
   xmlns="http://www.w3.org/2000/svg"
   xmlns:svg="http://www.w3.org/2000/svg"
   xmlns:rdf="http://www.w3.org/1999/02/22-rdf-syntax-ns#"
   xmlns:cc="http://creativecommons.org/ns#"
   xmlns:dc="http://purl.org/dc/elements/1.1/">
  <defs
     id="defs10" />
  <sodipodi:namedview
     id="base"
     pagecolor="#ffffff"
     bordercolor="#666666"
     borderopacity="1.0"
     inkscape:pageopacity="0.0"
     inkscape:pageshadow="2"
     inkscape:zoom="3.01"
     inkscape:cx="80.232558"
     inkscape:cy="90.199336"
     inkscape:document-units="px"
     inkscape:current-layer="layer1"
     inkscape:document-rotation="0"
     showgrid="false"
     units="px"
     inkscape:window-width="1276"
     inkscape:window-height="776"
     inkscape:window-x="0"
     inkscape:window-y="20"
     inkscape:window-maximized="0"
     height="180px"
     inkscape:pagecheckerboard="0"
     width="86.16px" />
  <metadata
     id="metadata13">
    <rdf:RDF>
      <cc:Work
         rdf:about="">
        <dc:format>image/svg+xml</dc:format>
        <dc:type
           rdf:resource="http://purl.org/dc/dcmitype/StillImage" />
      </cc:Work>
    </rdf:RDF>
  </metadata>
  <g
     inkscape:label="Layer 1"
     inkscape:groupmode="layer"
     id="layer1">
    <path
       id="rect18"
       style="fill:#000000;stroke-width:5.61022"
       d="M 0 16.183594 L 0 163.81641 L 5.5 163.81641 L 5.5 146.76562 L 3 146.76562 L 3 29.964844 L 5.5 29.964844 L 5.5 16.183594 L 0 16.183594 z M 21.5 16.183594 L 21.5 29.964844 L 24.439453 29.964844 L 24.439453 100.68555 L 58.199219 63.083984 L 61.199219 63.083984 L 61.199219 16.183594 L 21.5 16.183594 z M 77.640625 16.183594 L 77.640625 63.083984 L 80.919922 63.083984 L 49.720703 98.605469 L 83.160156 146.76562 L 79 146.76562 L 79 163.81641 L 86.160156 163.81641 L 86.160156 16.183594 L 77.640625 16.183594 z M 35.800781 110.60547 L 24.439453 121.80469 L 24.439453 146.76562 L 21.5 146.76562 L 21.5 163.81641 L 63 163.81641 L 63 146.76562 L 60.279297 146.76562 L 35.800781 110.60547 z "
       transform="scale(0.26458334)" />
  </g>
</svg>
