<?xml version="1.0" encoding="UTF-8" standalone="no"?>
<svg
   width="86.160004"
   height="180"
   viewBox="0 0 22.796501 47.625002"
   version="1.1"
   id="svg16"
   inkscape:version="1.1.1 (3bf5ae0d25, 2021-09-20)"
   sodipodi:docname="template.svg"
   xmlns:inkscape="http://www.inkscape.org/namespaces/inkscape"
   xmlns:sodipodi="http://sodipodi.sourceforge.net/DTD/sodipodi-0.dtd"
   xmlns="http://www.w3.org/2000/svg"
   xmlns:svg="http://www.w3.org/2000/svg"
   xmlns:rdf="http://www.w3.org/1999/02/22-rdf-syntax-ns#"
   xmlns:cc="http://creativecommons.org/ns#"
   xmlns:dc="http://purl.org/dc/elements/1.1/">
  <defs
     id="defs10" />
  <sodipodi:namedview
     id="base"
     pagecolor="#ffffff"
     bordercolor="#666666"
     borderopacity="1.0"
     inkscape:pageopacity="0.0"
     inkscape:pageshadow="2"
     inkscape:zoom="3.01"
     inkscape:cx="80.232558"
     inkscape:cy="90.199336"
     inkscape:document-units="px"
     inkscape:current-layer="layer1"
     inkscape:document-rotation="0"
     showgrid="false"
     units="px"
     inkscape:window-width="1276"
     inkscape:window-height="776"
     inkscape:window-x="0"
     inkscape:window-y="20"
     inkscape:window-maximized="0"
     height="180px"
     inkscape:pagecheckerboard="0"
     width="86.16px" />
  <metadata
     id="metadata13">
    <rdf:RDF>
      <cc:Work
         rdf:about="">
        <dc:format>image/svg+xml</dc:format>
        <dc:type
           rdf:resource="http://purl.org/dc/dcmitype/StillImage" />
      </cc:Work>
    </rdf:RDF>
  </metadata>
  <g
     inkscape:label="Layer 1"
     inkscape:groupmode="layer"
     id="layer1">
    <rect
       style="fill:#000000;stroke-width:1.48437"
       id="rect18"
       width="22.796501"
       height="47.625"
       x="3.6302401e-15"
       y="0" />
    <rect
       style="font-style:normal;font-variant:normal;font-weight:bold;font-stretch:normal;font-size:35.2778px;line-height:1.25;font-family:Raleway;-inkscape-font-specification:'Raleway Bold';fill:#ffffff;fill-opacity:1;stroke:none;stroke-width:0.621411"
       id="rect860-3"
       width="22.796501"
       height="4.2820168"
       x="0"
       y="43.342983" />
    <rect
       style="fill:#ffffff;stroke-width:4.44999"
       id="rect17"
       width="4.2333336"
       height="10.375067"
       x="1.4552083"
       y="1.8635565" />
    <rect
       style="font-style:normal;font-variant:normal;font-weight:bold;font-stretch:normal;font-size:35.2778px;line-height:1.25;font-family:Raleway;-inkscape-font-specification:'Raleway Bold';fill:#ffffff;fill-opacity:1;stroke:none;stroke-width:0.621411"
       id="rect47"
       width="22.796501"
       height="4.2820139"
       x="0"
       y="0" />
    <text
       xml:space="preserve"
       style="font-style:normal;font-weight:normal;font-size:42.3333px;line-height:1.25;font-family:sans-serif;fill:#ffffff;fill-opacity:1;stroke:none;stroke-width:0.264583"
       x="-1.7885827"
       y="38.831516"
       id="text21"><tspan
         sodipodi:role="line"
         id="tspan19"
         x="-1.7885827"
         y="38.831516"
         style="font-style:normal;font-variant:normal;font-weight:bold;font-stretch:normal;font-size:42.3333px;font-family:Raleway;-inkscape-font-specification:'Raleway Bold';fill:#ffffff;fill-opacity:1;stroke-width:0.264583">k</tspan></text>
    <rect
       style="fill:#ffffff;stroke-width:4.44999"
       id="rect838"
       width="4.2333336"
       height="10.375067"
       x="1.4552083"
       y="35.483086" />
    <rect
       style="fill:#ffffff;stroke-width:3.44775"
       id="rect840"
       width="4.2333336"
       height="6.2279315"
       x="16.668751"
       y="37.556652" />
    <rect
       style="fill:#ffffff;stroke-width:5.09398"
       id="rect839"
       width="4.3497157"
       height="13.231491"
       x="16.192501"
       y="3.8806264" />
  </g>
</svg>
