<?xml version="1.0" encoding="UTF-8" standalone="no"?>
<svg
   width="107.76"
   height="180.00002"
   viewBox="0 0 28.511495 47.625006"
   version="1.1"
   id="svg16"
   inkscape:version="1.1.1 (3bf5ae0d25, 2021-09-20)"
   sodipodi:docname="border.svg"
   xmlns:inkscape="http://www.inkscape.org/namespaces/inkscape"
   xmlns:sodipodi="http://sodipodi.sourceforge.net/DTD/sodipodi-0.dtd"
   xmlns="http://www.w3.org/2000/svg"
   xmlns:svg="http://www.w3.org/2000/svg"
   xmlns:rdf="http://www.w3.org/1999/02/22-rdf-syntax-ns#"
   xmlns:cc="http://creativecommons.org/ns#"
   xmlns:dc="http://purl.org/dc/elements/1.1/">
  <defs
     id="defs10">
    <clipPath
       clipPathUnits="userSpaceOnUse"
       id="clipPath912">
      <path
         id="path914"
         style="font-style:normal;font-variant:normal;font-weight:bold;font-stretch:normal;font-size:35.2778px;line-height:1.25;font-family:Raleway;-inkscape-font-specification:'Raleway Bold';fill:#ffffff;fill-opacity:1;stroke:none;stroke-width:2.62659"
         d="m 0,0 v 16.183594 h 45.236328 v 17.86914 C 41.741393,34.870596 38.429209,36.00167 35.320312,37.484375 28.386984,40.684373 22.5207,45.058806 17.720703,50.605469 12.920706,56.045465 9.2396858,62.125708 6.6796875,68.845703 4.2263558,75.459032 3,82.230734 3,89.164062 c 0,7.146662 1.3333351,14.241258 4,21.281248 2.7733315,6.93333 6.559378,13.22558 11.359375,18.87891 4.906663,5.54666 10.721411,10.02807 17.441406,13.4414 3.004209,1.47827 6.154201,2.60644 9.435547,3.42383 v 17.62696 H 0 V 180 H 107.75977 V 163.81641 H 66.683594 v -16.75586 c 3.343382,-0.50402 6.702129,-1.28845 10.076172,-2.375 6.293329,-2.02667 11.947607,-5.01428 16.960937,-8.96094 5.119997,-3.94666 8.799067,-8.74706 11.039067,-14.40039 L 86.679688,110.92578 c -1.706666,4.05333 -4.105888,7.35992 -7.199219,9.91992 -3.093331,2.56 -6.453414,4.42628 -10.080078,5.59961 -3.626665,1.17334 -7.200706,1.75977 -10.720703,1.75977 -4.906664,0 -9.439613,-1.01435 -13.59961,-3.04102 -4.05333,-2.13333 -7.573882,-4.95852 -10.560547,-8.47851 -2.879998,-3.62667 -5.118751,-7.73365 -6.71875,-12.32032 -1.599999,-4.693326 -2.40039,-9.547213 -2.40039,-14.560542 0,-4.479997 0.639922,-8.959457 1.919921,-13.439454 1.386666,-4.479997 3.466903,-8.533492 6.240235,-12.160156 2.773331,-3.626664 6.186904,-6.560783 10.240234,-8.800781 4.159997,-2.239999 9.011931,-3.359375 14.558594,-3.359375 3.413331,0 6.880393,0.532943 10.400391,1.599609 3.519997,0.96 6.82659,2.721252 9.919922,5.28125 3.093331,2.453332 5.599532,5.811461 7.519531,10.078125 L 103.16016,57.324219 C 99.426825,49.964224 93.719057,43.99096 86.039062,39.404297 80.388729,35.982264 73.93705,33.839615 66.683594,32.970703 V 16.183594 H 107.75977 V 0 Z" />
    </clipPath>
  </defs>
  <sodipodi:namedview
     id="base"
     pagecolor="#ffffff"
     bordercolor="#666666"
     borderopacity="1.0"
     inkscape:pageopacity="0.0"
     inkscape:pageshadow="2"
     inkscape:zoom="3"
     inkscape:cx="79.166667"
     inkscape:cy="137.5"
     inkscape:document-units="px"
     inkscape:current-layer="layer1"
     inkscape:document-rotation="0"
     showgrid="false"
     units="px"
     inkscape:window-width="1276"
     inkscape:window-height="776"
     inkscape:window-x="0"
     inkscape:window-y="20"
     inkscape:window-maximized="0"
     height="180px"
     inkscape:pagecheckerboard="0"
     width="107.76px" />
  <metadata
     id="metadata13">
    <rdf:RDF>
      <cc:Work
         rdf:about="">
        <dc:format>image/svg+xml</dc:format>
        <dc:type
           rdf:resource="http://purl.org/dc/dcmitype/StillImage" />
      </cc:Work>
    </rdf:RDF>
  </metadata>
  <g
     inkscape:label="Layer 1"
     inkscape:groupmode="layer"
     id="layer1"
     transform="translate(1.5239989)">
    <path
       id="rect860-3"
       style="font-style:normal;font-variant:normal;font-weight:bold;font-stretch:normal;font-size:35.2778px;line-height:1.25;font-family:Raleway;-inkscape-font-specification:'Raleway Bold';fill:none;fill-opacity:1;stroke:#000000;stroke-width:6;stroke-miterlimit:4;stroke-dasharray:none;stroke-opacity:1"
       d="m 0,16.183594 h 45.236328 v 17.86914 C 41.741393,34.870596 38.429209,36.00167 35.320312,37.484375 28.386984,40.684373 22.5207,45.058806 17.720703,50.605469 12.920706,56.045465 9.2396858,62.125708 6.6796875,68.845703 4.2263558,75.459032 3,82.230734 3,89.164062 c 0,7.146662 1.3333351,14.241258 4,21.281248 2.7733315,6.93333 6.559378,13.22558 11.359375,18.87891 4.906663,5.54666 10.721411,10.02807 17.441406,13.4414 3.004209,1.47827 6.154201,2.60644 9.435547,3.42383 v 17.62696 H 0 M 0,180 h 107.75977 m 0,-16.18359 H 66.683594 v -16.75586 c 3.343382,-0.50402 6.702129,-1.28845 10.076172,-2.375 6.293329,-2.02667 11.947607,-5.01428 16.960937,-8.96094 5.119997,-3.94666 8.799067,-8.74706 11.039067,-14.40039 L 86.679688,110.92578 c -1.706666,4.05333 -4.105888,7.35992 -7.199219,9.91992 -3.093331,2.56 -6.453414,4.42628 -10.080078,5.59961 -3.626665,1.17334 -7.200706,1.75977 -10.720703,1.75977 -4.906664,0 -9.439613,-1.01435 -13.59961,-3.04102 -4.05333,-2.13333 -7.573882,-4.95852 -10.560547,-8.47851 -2.879998,-3.62667 -5.118751,-7.73365 -6.71875,-12.32032 -1.599999,-4.693326 -2.40039,-9.547213 -2.40039,-14.560542 0,-4.479997 0.639922,-8.959457 1.919921,-13.439454 1.386666,-4.479997 3.466903,-8.533492 6.240235,-12.160156 2.773331,-3.626664 6.186904,-6.560783 10.240234,-8.800781 4.159997,-2.239999 9.011931,-3.359375 14.558594,-3.359375 3.413331,0 6.880393,0.532943 10.400391,1.599609 3.519997,0.96 6.82659,2.721252 9.919922,5.28125 3.093331,2.453332 5.599532,5.811461 7.519531,10.078125 L 103.16016,57.324219 C 99.426825,49.964224 93.719057,43.99096 86.039062,39.404297 80.388729,35.982264 73.93705,33.839615 66.683594,32.970703 V 16.183594 H 107.75977 M 107.75977,0 H 0"
       transform="matrix(0.26458331,0,0,0.26458331,-1.5239989,0)"
       clip-path="url(#clipPath912)"
       sodipodi:nodetypes="ccccccscccccccccccscccssscccscscscccccccccc" />
  </g>
</svg>
