<?xml version="1.0" encoding="UTF-8" standalone="no"?>
<svg
   width="94"
   height="180"
   viewBox="0 0 24.870831 47.625002"
   version="1.1"
   id="svg16"
   inkscape:version="1.1.1 (3bf5ae0d25, 2021-09-20)"
   sodipodi:docname="template.svg"
   xmlns:inkscape="http://www.inkscape.org/namespaces/inkscape"
   xmlns:sodipodi="http://sodipodi.sourceforge.net/DTD/sodipodi-0.dtd"
   xmlns="http://www.w3.org/2000/svg"
   xmlns:svg="http://www.w3.org/2000/svg"
   xmlns:rdf="http://www.w3.org/1999/02/22-rdf-syntax-ns#"
   xmlns:cc="http://creativecommons.org/ns#"
   xmlns:dc="http://purl.org/dc/elements/1.1/">
  <defs
     id="defs10" />
  <sodipodi:namedview
     id="base"
     pagecolor="#ffffff"
     bordercolor="#666666"
     borderopacity="1.0"
     inkscape:pageopacity="0.0"
     inkscape:pageshadow="2"
     inkscape:zoom="3"
     inkscape:cx="144.83333"
     inkscape:cy="90.5"
     inkscape:document-units="px"
     inkscape:current-layer="layer1"
     inkscape:document-rotation="0"
     showgrid="false"
     units="px"
     inkscape:window-width="1276"
     inkscape:window-height="776"
     inkscape:window-x="0"
     inkscape:window-y="20"
     inkscape:window-maximized="0"
     height="180px"
     inkscape:pagecheckerboard="0"
     width="94px" />
  <metadata
     id="metadata13">
    <rdf:RDF>
      <cc:Work
         rdf:about="">
        <dc:format>image/svg+xml</dc:format>
        <dc:type
           rdf:resource="http://purl.org/dc/dcmitype/StillImage" />
      </cc:Work>
    </rdf:RDF>
  </metadata>
  <g
     inkscape:label="Layer 1"
     inkscape:groupmode="layer"
     id="layer1"
     transform="translate(1.5239989)">
    <rect
       style="fill:#000000;stroke-width:1.55043"
       id="rect18"
       width="24.870832"
       height="47.625"
       x="-1.5239989"
       y="0" />
    <rect
       style="font-style:normal;font-variant:normal;font-weight:bold;font-stretch:normal;font-size:35.2778px;line-height:1.25;font-family:Raleway;-inkscape-font-specification:'Raleway Bold';fill:#ffffff;fill-opacity:1;stroke:none;stroke-width:0.649068"
       id="rect860-3"
       width="24.870832"
       height="4.2820168"
       x="-1.5239989"
       y="43.342983" />
    <rect
       style="font-style:normal;font-variant:normal;font-weight:bold;font-stretch:normal;font-size:35.2778px;line-height:1.25;font-family:Raleway;-inkscape-font-specification:'Raleway Bold';fill:#ffffff;fill-opacity:1;stroke:none;stroke-width:0.649067"
       id="rect47"
       width="24.870832"
       height="4.2820139"
       x="-1.5239989"
       y="0" />
    <text
       xml:space="preserve"
       style="font-style:normal;font-weight:normal;font-size:42.3333px;line-height:1.25;font-family:sans-serif;fill:#ffffff;fill-opacity:1;stroke:none;stroke-width:0.264583"
       x="-1.9155813"
       y="38.831501"
       id="text21"><tspan
         sodipodi:role="line"
         id="tspan19"
         x="-1.9155813"
         y="38.831501"
         style="font-style:normal;font-variant:normal;font-weight:bold;font-stretch:normal;font-size:42.3333px;font-family:Raleway;-inkscape-font-specification:'Raleway Bold';fill:#ffffff;fill-opacity:1;stroke-width:0.264583">e</tspan></text>
    <rect
       style="fill:#ffffff;stroke-width:6.25992"
       id="rect16"
       width="6.18607"
       height="14.049994"
       x="7.9300923"
       y="3.175" />
    <rect
       style="fill:#ffffff;stroke-width:4.41852"
       id="rect837"
       width="6.18607"
       height="6.999917"
       x="7.9300923"
       y="37.049572" />
  </g>
</svg>
