<?xml version="1.0" encoding="UTF-8" standalone="no"?>
<svg
   width="86"
   height="180.00002"
   viewBox="0 0 22.754161 47.625005"
   version="1.1"
   id="svg16"
   inkscape:version="1.1.1 (3bf5ae0d25, 2021-09-20)"
   sodipodi:docname="template.svg"
   xmlns:inkscape="http://www.inkscape.org/namespaces/inkscape"
   xmlns:sodipodi="http://sodipodi.sourceforge.net/DTD/sodipodi-0.dtd"
   xmlns="http://www.w3.org/2000/svg"
   xmlns:svg="http://www.w3.org/2000/svg"
   xmlns:rdf="http://www.w3.org/1999/02/22-rdf-syntax-ns#"
   xmlns:cc="http://creativecommons.org/ns#"
   xmlns:dc="http://purl.org/dc/elements/1.1/">
  <defs
     id="defs10" />
  <sodipodi:namedview
     id="base"
     pagecolor="#ffffff"
     bordercolor="#666666"
     borderopacity="1.0"
     inkscape:pageopacity="0.0"
     inkscape:pageshadow="2"
     inkscape:zoom="3"
     inkscape:cx="150.83333"
     inkscape:cy="84.833333"
     inkscape:document-units="px"
     inkscape:current-layer="layer1"
     inkscape:document-rotation="0"
     showgrid="false"
     units="px"
     inkscape:window-width="1276"
     inkscape:window-height="776"
     inkscape:window-x="0"
     inkscape:window-y="20"
     inkscape:window-maximized="0"
     height="180px"
     inkscape:pagecheckerboard="0"
     width="86px" />
  <metadata
     id="metadata13">
    <rdf:RDF>
      <cc:Work
         rdf:about="">
        <dc:format>image/svg+xml</dc:format>
        <dc:type
           rdf:resource="http://purl.org/dc/dcmitype/StillImage" />
      </cc:Work>
    </rdf:RDF>
  </metadata>
  <g
     inkscape:label="Layer 1"
     inkscape:groupmode="layer"
     id="layer1"
     transform="translate(1.5239989)">
    <rect
       style="fill:#000000;stroke-width:1.48298"
       id="rect18"
       width="22.754164"
       height="47.625"
       x="-1.5239989"
       y="0" />
    <rect
       style="font-style:normal;font-variant:normal;font-weight:bold;font-stretch:normal;font-size:35.2778px;line-height:1.25;font-family:Raleway;-inkscape-font-specification:'Raleway Bold';fill:#ffffff;fill-opacity:1;stroke:none;stroke-width:0.620834"
       id="rect860-3"
       width="22.754164"
       height="4.2820163"
       x="-1.5239989"
       y="43.342979" />
    <rect
       style="font-style:normal;font-variant:normal;font-weight:bold;font-stretch:normal;font-size:35.2778px;line-height:1.25;font-family:Raleway;-inkscape-font-specification:'Raleway Bold';fill:#ffffff;fill-opacity:1;stroke:none;stroke-width:0.620833"
       id="rect47"
       width="22.754164"
       height="4.2820139"
       x="-1.5239989"
       y="0" />
    <text
       xml:space="preserve"
       style="font-style:normal;font-weight:normal;font-size:42.3333px;line-height:1.25;font-family:sans-serif;fill:#ffffff;fill-opacity:1;stroke:none;stroke-width:0.264583"
       x="-3.8629141"
       y="38.831512"
       id="text21"><tspan
         sodipodi:role="line"
         id="tspan19"
         x="-3.8629141"
         y="38.831512"
         style="font-style:normal;font-variant:normal;font-weight:bold;font-stretch:normal;font-size:42.3333px;font-family:Raleway;-inkscape-font-specification:'Raleway Bold';fill:#ffffff;fill-opacity:1;stroke-width:0.264583">L</tspan></text>
    <rect
       style="fill:#ffffff;stroke-width:3.5883"
       id="rect837"
       width="3.1749997"
       height="8.9947157"
       x="4.0322504"
       y="36.734966" />
    <rect
       style="fill:#ffffff;stroke-width:3.25654"
       id="rect3087"
       width="3.1749997"
       height="7.4083323"
       x="12.077703"
       y="37.793301" />
    <rect
       style="fill:#ffffff;stroke-width:4.39475"
       id="rect2038"
       width="4.7624993"
       height="8.9947157"
       x="-0.20108238"
       y="1.9099951" />
  </g>
</svg>
