<?xml version="1.0" encoding="UTF-8" standalone="no"?>
<svg
   width="92.879997"
   height="180"
   viewBox="0 0 24.574498 47.625002"
   version="1.1"
   id="svg16"
   inkscape:version="1.1.1 (3bf5ae0d25, 2021-09-20)"
   sodipodi:docname="border.svg"
   xmlns:inkscape="http://www.inkscape.org/namespaces/inkscape"
   xmlns:sodipodi="http://sodipodi.sourceforge.net/DTD/sodipodi-0.dtd"
   xmlns="http://www.w3.org/2000/svg"
   xmlns:svg="http://www.w3.org/2000/svg"
   xmlns:rdf="http://www.w3.org/1999/02/22-rdf-syntax-ns#"
   xmlns:cc="http://creativecommons.org/ns#"
   xmlns:dc="http://purl.org/dc/elements/1.1/">
  <defs
     id="defs10" />
  <sodipodi:namedview
     id="base"
     pagecolor="#ffffff"
     bordercolor="#666666"
     borderopacity="1.0"
     inkscape:pageopacity="0.0"
     inkscape:pageshadow="2"
     inkscape:zoom="3.01"
     inkscape:cx="86.54485"
     inkscape:cy="87.209302"
     inkscape:document-units="px"
     inkscape:current-layer="layer1"
     inkscape:document-rotation="0"
     showgrid="false"
     units="px"
     inkscape:window-width="1276"
     inkscape:window-height="776"
     inkscape:window-x="0"
     inkscape:window-y="20"
     inkscape:window-maximized="0"
     height="180px"
     inkscape:pagecheckerboard="0"
     width="92.88px" />
  <metadata
     id="metadata13">
    <rdf:RDF>
      <cc:Work
         rdf:about="">
        <dc:format>image/svg+xml</dc:format>
        <dc:type
           rdf:resource="http://purl.org/dc/dcmitype/StillImage" />
      </cc:Work>
    </rdf:RDF>
  </metadata>
  <g
     inkscape:label="Layer 1"
     inkscape:groupmode="layer"
     id="layer1">
    <path
       id="rect18"
       style="fill:#000000;stroke-width:5.82486"
       d="M 0 16.183594 L 0 163.81641 L 6.1992188 163.81641 L 6.1992188 146.76562 L 3 146.76562 L 3 29.964844 L 5.5 29.964844 L 5.5 16.183594 L 0 16.183594 z M 21.5 16.183594 L 21.5 29.964844 L 24.439453 29.964844 L 24.439453 77.644531 C 27.426118 72.631202 31.319144 68.684684 36.119141 65.804688 C 41.025804 62.92469 46.733573 61.484375 53.240234 61.484375 C 58.68023 61.484375 63.639144 62.657241 68.119141 65.003906 C 72.599137 67.243905 76.440627 70.391983 79.640625 74.445312 C 82.947289 78.498643 85.453491 83.138572 87.160156 88.365234 C 88.973488 93.591897 89.880859 99.190737 89.880859 105.16406 C 89.880859 111.13739 88.866509 116.73818 86.839844 121.96484 C 84.919845 127.19151 82.199684 131.83144 78.679688 135.88477 C 75.15969 139.83143 70.999215 142.92406 66.199219 145.16406 C 63.698447 146.30078 61.058485 147.12522 58.285156 147.65625 L 58.285156 163.81641 L 92.880859 163.81641 L 92.880859 16.183594 L 21.5 16.183594 z M 46.039062 79.724609 C 42.945732 79.724609 39.960076 80.471512 37.080078 81.964844 C 34.306747 83.351509 31.800545 85.271278 29.560547 87.724609 C 27.427215 90.177941 25.719452 92.951591 24.439453 96.044922 L 24.439453 116.04492 C 25.079453 118.17825 26.093803 120.09802 27.480469 121.80469 C 28.973801 123.51135 30.679611 125.00516 32.599609 126.28516 C 34.519608 127.45849 36.492866 128.4174 38.519531 129.16406 C 40.652863 129.80406 42.7331 130.125 44.759766 130.125 C 48.173096 130.125 51.265732 129.48508 54.039062 128.20508 C 56.91906 126.81841 59.373725 125.00562 61.400391 122.76562 C 63.533722 120.52564 65.132553 117.91049 66.199219 114.92383 C 67.372551 111.8305 67.958984 108.63088 67.958984 105.32422 C 67.958984 100.73756 67.000077 96.525544 65.080078 92.685547 C 63.266746 88.738883 60.707055 85.590806 57.400391 83.244141 C 54.200393 80.897476 50.412393 79.724609 46.039062 79.724609 z M 21.720703 132.20508 L 21.720703 146.76562 L 18.199219 146.76562 L 18.199219 163.81641 L 46.285156 163.81641 L 46.285156 148.11914 C 41.638832 147.60131 37.395474 146.24797 33.560547 144.04492 C 28.547217 141.16492 24.600701 137.21841 21.720703 132.20508 z "
       transform="scale(0.26458333)" />
  </g>
</svg>
