<?xml version="1.0" encoding="UTF-8" standalone="no"?>
<svg
   width="88.720001"
   height="180"
   viewBox="0 0 23.473832 47.625002"
   version="1.1"
   id="svg16"
   inkscape:version="1.1.1 (3bf5ae0d25, 2021-09-20)"
   sodipodi:docname="border.svg"
   xmlns:inkscape="http://www.inkscape.org/namespaces/inkscape"
   xmlns:sodipodi="http://sodipodi.sourceforge.net/DTD/sodipodi-0.dtd"
   xmlns="http://www.w3.org/2000/svg"
   xmlns:svg="http://www.w3.org/2000/svg"
   xmlns:rdf="http://www.w3.org/1999/02/22-rdf-syntax-ns#"
   xmlns:cc="http://creativecommons.org/ns#"
   xmlns:dc="http://purl.org/dc/elements/1.1/">
  <defs
     id="defs10">
    <clipPath
       clipPathUnits="userSpaceOnUse"
       id="clipPath913">
      <path
         id="path915"
         style="font-style:normal;font-variant:normal;font-weight:bold;font-stretch:normal;font-size:35.2778px;line-height:1.25;font-family:Raleway;-inkscape-font-specification:'Raleway Bold';fill:#ffffff;fill-opacity:1;stroke:none;stroke-width:8.28506;stroke-miterlimit:4;stroke-dasharray:none;stroke-opacity:1"
         d="m 0,0 v 16.183594 h 36.837891 v 45.570312 c -4.312641,0.386748 -8.50107,1.197028 -12.558594,2.451172 -5.759996,1.813332 -11.412322,4.533492 -16.9589845,8.160156 l 6.8789065,14.080078 c 4.586663,-3.093331 8.961097,-5.441016 13.121093,-7.041015 4.159997,-1.599999 8.532478,-2.400391 13.119141,-2.400391 6.186662,0 10.826591,1.440315 13.919922,4.320313 3.199998,2.879998 4.800781,6.986983 4.800781,12.320312 V 98.125 C 56.493492,96.951668 53.347367,96.097786 49.720703,95.564453 46.094039,95.03112 42.519997,94.765625 39,94.765625 c -7.039995,0 -13.280707,1.119377 -18.720703,3.359375 -5.439996,2.24 -9.705497,5.43961 -12.7988282,9.59961 C 4.4938043,111.77794 3,116.52485 3,121.96484 c 0,5.01333 1.226356,9.54628 3.6796875,13.59961 2.5599981,3.94667 6.0270605,7.09279 10.4003905,9.43946 2.031698,1.01584 4.178613,1.79054 6.429688,2.3457 v 16.4668 H 0 V 180 h 88.720703 v -16.18359 h -6.326172 v -16.54688 c 1.082334,-0.15923 2.116899,-0.30236 3.326172,-0.50391 v -17.4414 c -1.813332,-0.21333 -3.146667,-0.79977 -4,-1.75977 -0.746666,-0.96 -1.121094,-2.55883 -1.121094,-4.79883 V 96.044922 c 0,-11.093325 -3.360083,-19.626281 -10.080078,-25.59961 -3.248964,-2.934548 -7.14547,-5.143841 -11.68164,-6.636718 v -47.625 H 88.720703 V 0 Z m 42.359375,107.08398 c 2.666665,0 5.493804,0.32094 8.480469,0.96094 2.986664,0.53333 5.760314,1.33373 8.320312,2.40039 v 8.48047 c 0,1.06667 -0.374427,2.23953 -1.121094,3.51953 -0.746666,1.28 -1.705573,2.55985 -2.878906,3.83985 -1.919998,1.81333 -4.4262,3.35867 -7.519531,4.63867 -3.093331,1.17333 -6.241409,1.76172 -9.441406,1.76172 -3.093331,0 -5.760002,-0.58839 -8,-1.76172 -2.239999,-1.17333 -3.945808,-2.71868 -5.119141,-4.63867 -1.173332,-1.92 -1.759766,-3.94675 -1.759766,-6.08008 0,-3.94667 1.7593,-7.09279 5.279297,-9.43946 3.626664,-2.45333 8.213103,-3.68164 13.759766,-3.68164 z m 20,26.56055 0.480469,4.32031 c 0.533333,2.77334 1.866668,5.11907 4,7.03907 0.01854,0.0159 0.03991,0.0292 0.05859,0.0449 v 18.76758 H 43.962891 v -17.38868 c 1.607854,-0.52947 3.207237,-1.15427 4.796875,-1.90234 5.439996,-2.56 9.972945,-6.18753 13.599609,-10.88086 z" />
    </clipPath>
  </defs>
  <sodipodi:namedview
     id="base"
     pagecolor="#ffffff"
     bordercolor="#666666"
     borderopacity="1.0"
     inkscape:pageopacity="0.0"
     inkscape:pageshadow="2"
     inkscape:zoom="3"
     inkscape:cx="63.5"
     inkscape:cy="85.833333"
     inkscape:document-units="px"
     inkscape:current-layer="layer1"
     inkscape:document-rotation="0"
     showgrid="false"
     units="px"
     inkscape:window-width="1276"
     inkscape:window-height="776"
     inkscape:window-x="0"
     inkscape:window-y="20"
     inkscape:window-maximized="0"
     height="180px"
     inkscape:pagecheckerboard="0"
     width="88.72px" />
  <metadata
     id="metadata13">
    <rdf:RDF>
      <cc:Work
         rdf:about="">
        <dc:format>image/svg+xml</dc:format>
        <dc:type
           rdf:resource="http://purl.org/dc/dcmitype/StillImage" />
      </cc:Work>
    </rdf:RDF>
  </metadata>
  <g
     inkscape:label="Layer 1"
     inkscape:groupmode="layer"
     id="layer1"
     transform="translate(1.5239989)">
    <path
       id="path911"
       style="font-style:normal;font-variant:normal;font-weight:bold;font-stretch:normal;font-size:35.2778px;line-height:1.25;font-family:Raleway;-inkscape-font-specification:'Raleway Bold';fill:none;fill-opacity:1;stroke:#000000;stroke-width:6;stroke-miterlimit:4;stroke-dasharray:none;stroke-opacity:1"
       d="m 0,180 h 88.720703 m 0,-16.18359 h -6.326172 v -16.54688 c 1.082334,-0.15923 2.116899,-0.30236 3.326172,-0.50391 v -17.4414 c -1.813332,-0.21333 -3.146667,-0.79977 -4,-1.75977 -0.746666,-0.96 -1.121094,-2.55883 -1.121094,-4.79883 V 96.044922 c 0,-11.093325 -3.360083,-19.626281 -10.080078,-25.59961 -3.248964,-2.934548 -7.14547,-5.143841 -11.68164,-6.636718 v -47.625 H 88.720703 M 88.720703,0 H 0 m 0,16.183594 h 36.837891 v 45.570312 c -4.312641,0.386748 -8.50107,1.197028 -12.558594,2.451172 -5.759996,1.813332 -11.412322,4.533492 -16.9589845,8.160156 l 6.8789065,14.080078 c 4.586663,-3.093331 8.961097,-5.441016 13.121093,-7.041015 4.159997,-1.599999 8.532478,-2.400391 13.119141,-2.400391 6.186662,0 10.826591,1.440315 13.919922,4.320313 3.199998,2.879998 4.800781,6.986983 4.800781,12.320312 V 98.125 C 56.493492,96.951668 53.347367,96.097786 49.720703,95.564453 46.094039,95.03112 42.519997,94.765625 39,94.765625 c -7.039995,0 -13.280707,1.119377 -18.720703,3.359375 -5.439996,2.24 -9.705497,5.43961 -12.7988282,9.59961 C 4.4938043,111.77794 3,116.52485 3,121.96484 c 0,5.01333 1.226356,9.54628 3.6796875,13.59961 2.5599981,3.94667 6.0270605,7.09279 10.4003905,9.43946 2.031698,1.01584 4.178613,1.79054 6.429688,2.3457 v 16.4668 H 0 m 42.359375,-56.73243 c 2.666665,0 5.493804,0.32094 8.480469,0.96094 2.986664,0.53333 5.760314,1.33373 8.320312,2.40039 v 8.48047 c 0,1.06667 -0.374427,2.23953 -1.121094,3.51953 -0.746666,1.28 -1.705573,2.55985 -2.878906,3.83985 -1.919998,1.81333 -4.4262,3.35867 -7.519531,4.63867 -3.093331,1.17333 -6.241409,1.76172 -9.441406,1.76172 -3.093331,0 -5.760002,-0.58839 -8,-1.76172 -2.239999,-1.17333 -3.945808,-2.71868 -5.119141,-4.63867 -1.173332,-1.92 -1.759766,-3.94675 -1.759766,-6.08008 0,-3.94667 1.7593,-7.09279 5.279297,-9.43946 3.626664,-2.45333 8.213103,-3.68164 13.759766,-3.68164 z m 20,26.56055 0.480469,4.32031 c 0.533333,2.77334 1.866668,5.11907 4,7.03907 0.01854,0.0159 0.03991,0.0292 0.05859,0.0449 v 18.76758 H 43.962891 v -17.38868 c 1.607854,-0.52947 3.207237,-1.15427 4.796875,-1.90234 5.439996,-2.56 9.972945,-6.18753 13.599609,-10.88086 z"
       transform="matrix(0.26458333,0,0,0.26458333,-1.5239989,0)"
       clip-path="url(#clipPath913)"
       sodipodi:nodetypes="ccccccccssccccccccccccsscscssscscccccsccssccsssscscccccccsc" />
  </g>
</svg>
