<?xml version="1.0" encoding="UTF-8" standalone="no"?>
<svg
   width="84.879997"
   height="180.00002"
   viewBox="0 0 22.457827 47.625005"
   version="1.1"
   id="svg16"
   inkscape:version="1.1.1 (3bf5ae0d25, 2021-09-20)"
   sodipodi:docname="mask.svg"
   xmlns:inkscape="http://www.inkscape.org/namespaces/inkscape"
   xmlns:sodipodi="http://sodipodi.sourceforge.net/DTD/sodipodi-0.dtd"
   xmlns="http://www.w3.org/2000/svg"
   xmlns:svg="http://www.w3.org/2000/svg"
   xmlns:rdf="http://www.w3.org/1999/02/22-rdf-syntax-ns#"
   xmlns:cc="http://creativecommons.org/ns#"
   xmlns:dc="http://purl.org/dc/elements/1.1/">
  <defs
     id="defs10" />
  <sodipodi:namedview
     id="base"
     pagecolor="#ffffff"
     bordercolor="#666666"
     borderopacity="1.0"
     inkscape:pageopacity="0.0"
     inkscape:pageshadow="2"
     inkscape:zoom="3"
     inkscape:cx="70.5"
     inkscape:cy="87.5"
     inkscape:document-units="px"
     inkscape:current-layer="layer1"
     inkscape:document-rotation="0"
     showgrid="false"
     units="px"
     inkscape:window-width="1276"
     inkscape:window-height="776"
     inkscape:window-x="0"
     inkscape:window-y="20"
     inkscape:window-maximized="0"
     height="180px"
     inkscape:pagecheckerboard="0"
     width="84.88px" />
  <metadata
     id="metadata13">
    <rdf:RDF>
      <cc:Work
         rdf:about="">
        <dc:format>image/svg+xml</dc:format>
        <dc:type
           rdf:resource="http://purl.org/dc/dcmitype/StillImage" />
      </cc:Work>
    </rdf:RDF>
  </metadata>
  <g
     inkscape:label="Layer 1"
     inkscape:groupmode="layer"
     id="layer1"
     transform="translate(1.5239989)">
    <path
       id="rect18"
       style="fill:#000000;stroke-width:5.5683"
       d="M 0 16.183594 L 0 163.81641 L 31.828125 163.81641 L 31.828125 146.76562 L 3 146.76562 L 3 33.164062 L 31.828125 33.164062 L 31.828125 16.183594 L 0 16.183594 z M 54.199219 16.183594 L 54.199219 33.164062 L 80.439453 33.164062 L 80.439453 52.525391 L 25.080078 52.525391 L 25.080078 79.884766 L 72.919922 79.884766 L 72.919922 97.804688 L 25.080078 97.804688 L 25.080078 127.4043 L 81.880859 127.4043 L 81.880859 146.76562 L 54.199219 146.76562 L 54.199219 163.81641 L 84.880859 163.81641 L 84.880859 16.183594 L 54.199219 16.183594 z "
       transform="matrix(0.2645833,0,0,0.2645833,-1.5239989,0)" />
  </g>
</svg>
